Introducing stats19
…
32 columns (variables) for

129,982 crashes.

This work was done by read_accidents(format = FALSE),
which imported the “raw” STATS19 data without cleaning messy column
names or re-categorising the outputs. format_accidents()
function automates the process of matching column names with variable
names and labels in a .xls
file provided by the DfT. This means crashes_2017 is
much more usable than crashes_2017_raw, as shown below,
which shows some key variables in the messy and clean datasets:

crashes_2017_raw[c(7, 18, 23, 25)]
#> # A tibble: 129,982 × 4
#>    latitude  first_road_class junction_control second_road_number
#>    <chr>                <dbl>            <dbl>              <dbl>
#>  1 51.650061                3               -1                 -1
#>  2 51.522425                3                4                  0
#>  3 51.514096                3                4                  0
#>  4 51.624832                3                4                154
#>  5 51.573408                3                2                 10
#>  6 51.438762                6               -1                 -1
#>  7 51.525305                3                4                  0
#>  8 51.522                   3               -1                 -1
#>  9 51.621219                3                2               5109
#> 10 51.489732                3                4                  0
#> # … with 129,972 more rows
crashes_2017[c(7, 18, 23, 25)]
#> # A tibble: 129,982 × 4
#>    latitude  first_road_class junction_control             second_road_number   
#>    <chr>     <chr>            <chr>                        <chr>                
#>  1 51.650061 A                Data missing or out of range Unknown              
#>  2 51.522425 A                Give way or uncontrolled     first_road_class is …
#>  3 51.514096 A                Give way or uncontrolled     first_road_class is …
#>  4 51.624832 A                Give way or uncontrolled     <NA>                 
#>  5 51.573408 A                Auto traffic signal          <NA>                 
#>  6 51.438762 Unclassified     Data missing or out of range Unknown              
#>  7 51.525305 A                Give way or uncontrolled     first_road_class is …
#>  8 51.522    A                Data missing or out of range Unknown              
#>  9 51.621219 A                Auto traffic signal          <NA>                 
#> 10 51.489732 A                Give way or uncontrolled     first_road_class is …
#> # … with 129,972 more rows
…
Format STATS19 data

It is also possible to import the “raw” data as provided by the DfT.
A .xls
file provided by the DfT defines the column names for the datasets
provided. The packaged datasets stats19_variables and
stats19_schema provide summary information about the
contents of this data guide. These contain the full variable names in
the guide (stats19_variables) and a complete look up table
relating integer values to the .csv files provided by the
DfT and their labels (stats19_schema). The first rows of
each dataset are shown below:

stats19_variables
#> # A tibble: 98 × 5
#> # Groups:   table [4]
#>    table    variable                                    note       colum…¹ type 
#>    <chr>    <chr>                                       <chr>      <chr>   <chr>
#>  1 Accident accident_index                              unique va… accide… char…
#>  2 Accident accident_index                              unique va… accide… char…
#>  3 Accident accident_index                              unique va… accide… char…
#>  4 Accident accident_reference                          In year i… accide… char…
#>  5 Accident accident_severity                           <NA>       accide… char…
#>  6 Accident accident_year                               <NA>       accide… nume…
#>  7 Accident carriageway_hazards                         <NA>       carria… char…
#>  8 Accident date                                        <NA>       date    char…
#>  9 Accident day_of_week                                 <NA>       day_of… char…
#> 10 Accident did_police_officer_attend_scene_of_accident <NA>       did_po… char…
#> # … with 88 more rows, and abbreviated variable name ¹​column_name
stats19_schema
#> # A tibble: 914 × 7
#>    table    variable     code  label               note  variable_format…¹ type 
#>    <chr>    <chr>        <chr> <chr>               <chr> <chr>             <chr>
#>  1 Accident police_force 1     Metropolitan Police <NA>  police_force      char…
#>  2 Accident police_force 3     Cumbria             <NA>  police_force      char…
#>  3 Accident police_force 4     Lancashire          <NA>  police_force      char…
#>  4 Accident police_force 5     Merseyside          <NA>  police_force      char…
#>  5 Accident police_force 6     Greater Manchester  <NA>  police_force      char…
#>  6 Accident police_force 7     Cheshire            <NA>  police_force      char…
#>  7 Accident police_force 10    Northumbria         <NA>  police_force      char…
#>  8 Accident police_force 11    Durham              <NA>  police_force      char…
#>  9 Accident police_force 12    North Yorkshire     <NA>  police_force      char…
#> 10 Accident police_force 13    West Yorkshire      <NA>  police_force      char…
#> # … with 904 more rows, and abbreviated variable name ¹​variable_formatted
…
The results show that there were

170,993 casualties reported by the police in the STATS19 dataset in
2017, and

16 columns (variables). Values for a sample of these columns are
shown below:

casualties_2017[c(4, 5, 6, 14)]
#> # A tibble: 170,993 × 4
#>    vehicle_reference casualty_reference casualty_class  bus_or_coach_passenger  
#>                <dbl>              <dbl> <chr>           <chr>                   
#>  1                 1                  1 Passenger       Not a bus or coach pass…
#>  2                 2                  2 Driver or rider Not a bus or coach pass…
#>  3                 2                  3 Passenger       Not a bus or coach pass…
#>  4                 1                  1 Passenger       Not a bus or coach pass…
#>  5                 3                  1 Driver or rider Not a bus or coach pass…
#>  6                 1                  1 Passenger       Not a bus or coach pass…
#>  7                 1                  1 Pedestrian      Not a bus or coach pass…
#>  8                 2                  1 Driver or rider Not a bus or coach pass…
#>  9                 1                  1 Driver or rider Not a bus or coach pass…
#> 10                 2                  2 Driver or rider Not a bus or coach pass…
#> # … with 170,983 more rows
…
The results show that there were

238,926 vehicles involved in crashes reported by the police in the
STATS19 dataset in 2017, with

23 columns (variables). Values for a sample of these columns are
shown below:

vehicles_2017[c(3, 14:16)]
#> # A tibble: 238,926 × 4
#>    accident_reference vehicle_leaving_carriageway hit_object_off_carri…¹ first…²
#>    <chr>              <chr>                       <chr>                  <chr>  
#>  1 010001708          Did not leave carriageway   None                   Front  
#>  2 010001708          Did not leave carriageway   None                   Back   
#>  3 010009342          Did not leave carriageway   None                   Back   
#>  4 010009342          Did not leave carriageway   None                   Front  
#>  5 010009344          Did not leave carriageway   None                   Front  
#>  6 010009344          Did not leave carriageway   None                   Front  
#>  7 010009344          Did not leave carriageway   None                   Front  
#>  8 010009348          Did not leave carriageway   None                   Front  
#>  9 010009348          Did not leave carriageway   None                   Offside
#> 10 010009350          Did not leave carriageway   None                   Offside
#> # … with 238,916 more rows, and abbreviated variable names
#> #   ¹​hit_object_off_carriageway, ²​first_point_of_impact
…
